﻿# Anbennar: commented vanilla stuff

namespace = fp2_other_decisions

##################################################
# #Dynasty Decision Events
# 0001 - manage invite following the Celebration Decision
# 0002 - Feedback on the festival
##################################################





##################################################
# Celebration - Inviting guests
# by Maxence Voleau
# 0001 Invite guest in the background
##################################################

#Inviting guest from Celebration
fp2_other_decisions.0001 = {
	hidden = yes

	trigger = {
		# DLC checking
		has_fp2_dlc_trigger = yes
		# Standard check
		exists = var:number_prestigious_new_guests
	}

	immediate = {
		save_scope_as = host #Must be permanent for courtier_guest_management.1001

		# create list of available faith / culture
		every_sub_realm_county = {
			faith = {
				if = {
					limit = {
						NOT = {
							any_in_list = {
								list = potential_faiths
							}
						}
					}
					add_to_list = potential_faiths
				}
			}
			culture = {
				if = {
					limit = {
						NOT = {
							any_in_list = {
								list = potential_cultures
							}
						}
					}
					add_to_list = potential_cultures
				}
			}
		}

		# If the festival is grandiose, add faith / culture from neighbouring realms
		if = {
			limit = {
				exists = var:holding_quality
				var:holding_quality > 1
			}
			every_neighboring_and_across_water_realm_same_rank_owner = {
				every_sub_realm_county = {
					faith = {
						if = {
							limit = {
								NOT = {
									any_in_list = {
										list = potential_faiths
									}
								}
							}
							add_to_list = potential_faiths
						}
					}
					culture = {
						if = {
							limit = {
								NOT = {
									any_in_list = {
										list = potential_cultures
									}
								}
							}
							add_to_list = potential_cultures
						}
					}
				}
			}
		}


		# If the festival is at max level, add faith and culture from the whole diplomatic range
		if = {
			limit = {
				exists = var:holding_quality
				var:holding_quality > 2
			}
			every_ruler = {
				limit = {
					in_diplomatic_range = scope:host
				}
				every_sub_realm_county = {
					faith = {
						if = {
							limit = {
								NOT = {
									any_in_list = {
										list = potential_faiths
									}
								}
							}
							add_to_list = potential_faiths
						}
					}
					culture = {
						if = {
							limit = {
								NOT = {
									any_in_list = {
										list = potential_cultures
									}
								}
							}
							add_to_list = potential_cultures
						}
					}
				}
			}
		}

		# Pick a faith and a culture from the list to forward it to the template
		random_in_list = {
			list = potential_faiths
			save_scope_as = guest_faith
		}

		random_in_list = {
			list = potential_cultures
			save_scope_as = guest_culture
		}


		#Randomly select a type of character and generate it
		random_list = {
			# Skilled Martial / Commander
			100 = {
				# lower the value for each commander already generated
				modifier = {
					exists = var:nb_commander_generated
					add = {
						value = var:nb_commander_generated
						multiply = -20
					}
				}

				if = {
					limit = { exists = var:nb_commander_generated }
					change_variable = {
						name = nb_commander_generated
						add = 1
					}
				}
				else = {
					set_variable = {
						name = nb_commander_generated
						value = 1
					}
				}

				# Generate the actual character
				create_character = {
					template = celebration_martial_character
					location = root.capital_province
					save_scope_as = new_guest
				}
			}

			# Skilled Diplomat
			100 = {

				# lower the value for each diplomat already generated
				modifier = {
					 exists = var:nb_diplomat_generated
					add = {
						value = var:nb_diplomat_generated
						multiply = -20
					}
				}

				if = {
					limit = { exists = var:nb_diplomat_generated }
					change_variable = {
						name = nb_diplomat_generated
						add = 1
					}
				}
				else = {
					set_variable = {
						name = nb_diplomat_generated
						value = 1
					}
				}

				# Generate the actual character
				create_character = {
					template = celebration_diplomat_character
					location = root.capital_province
					save_scope_as = new_guest
				}
			}

			# Skilled Spy
			100 = {

				# lower the value for each spy already generated
				modifier = {
					exists = var:nb_spy_generated
					add = {
						value = var:nb_spy_generated
						multiply = -20
					}
				}

				if = {
					limit = { exists = var:nb_spy_generated }
					change_variable = {
						name = nb_spy_generated
						add = 1
					}
				}
				else = {
					set_variable = {
						name = nb_spy_generated
						value = 1
					}
				}

				# Generate the actual character
				create_character = {
					template = celebration_spy_character
					location = root.capital_province
					save_scope_as = new_guest
				}
			}

			# Skilled Steward
			100 = {

				# lower the value for each spy already generated
				modifier = {
					exists = var:nb_steward_generated
					add = {
						value = var:nb_steward_generated
						multiply = -20
					}
				}

				if = {
					limit = { exists = var:nb_steward_generated }
					change_variable = {
						name = nb_steward_generated
						add = 1
					}
				}
				else = {
					set_variable = {
						name = nb_steward_generated
						value = 1
					}
				}

				# Generate the actual character
				create_character = {
					template = celebration_steward_character
					location = root.capital_province
					save_scope_as = new_guest
				}
			}

			# Skilled Hunter
			100 = {
				# lower the value for each hunter already generated
				modifier = {
					exists = var:nb_hunter_generated
					add = {
						value = var:nb_hunter_generated
						multiply = -20
					}
				}

				if = {
					limit = { exists = var:nb_hunter_generated }
					change_variable = {
						name = nb_hunter_generated
						add = 1
					}
				}
				else = {
					set_variable = {
						name = nb_hunter_generated
						value = 1
					}
				}

				# Generate the actual character
				create_character = {
					template = celebration_hunter_character
					location = root.capital_province
					save_scope_as = new_guest
				}
			}

			# Skilled Priest
			100 = {
				trigger = {
					# can replace the court chaplain
					faith = {
						OR = {
							has_doctrine = doctrine_clerical_succession_temporal_fixed_appointment
							has_doctrine = doctrine_clerical_succession_spiritual_fixed_appointment
						}
					}
				}

				# lower the value for each priest already generated
				modifier = {
					exists = var:nb_priest_generated
					add = {
						value = var:nb_priest_generated
						multiply = -20
					}
				}

				if = {
					limit = { exists = var:nb_priest_generated }
					change_variable = {
						name = nb_priest_generated
						add = 1
					}
				}
				else = {
					set_variable = {
						name = nb_priest_generated
						value = 1
					}
				}

				# Generate the actual character
				create_character = {
					template = celebration_martial_character
					location = root.capital_province
					save_scope_as = new_guest
				}
			}

			# Skilled Scholar
			100 = {
				# lower the value for each scholar already generated
				modifier = {
					exists = var:nb_scholar_generated
					add = {
						value = var:nb_scholar_generated
						multiply = -20
					}
				}

				if = {
					limit = { exists = var:nb_scholar_generated }
					change_variable = {
						name = nb_scholar_generated
						add = 1
					}
				}
				else = {
					set_variable = {
						name = nb_scholar_generated
						value = 1
					}
				}

				create_character = {
					template = celebration_scholar_character
					location = root.capital_province
					save_scope_as = new_guest
				}
			}

			# Skilled Artisan - default wait is lower has they are going to be inspired
			50 = {
				trigger = {
					# Only for RoCo owners
					has_ep1_dlc_trigger = yes
					# has_royal_court = yes # Should check royal court?
				}

				# lower the value for each artisan already generated
				modifier = {
					exists = var:nb_artisan_generated
					add = {
						value = var:nb_artisan_generated
						multiply = -20
					}
				}

				if = {
					limit = { exists = var:nb_artisan_generated }
					change_variable = {
						name = nb_artisan_generated
						add = 1
					}
				}
				else = {
					set_variable = {
						name = nb_artisan_generated
						value = 1
					}
				}

				# Generate the actual character
				create_character = {
					template = celebration_artisan_character
					location = root.capital_province
					save_scope_as = new_guest
				}
			}


			# Chess Master
			100 = {
				trigger = {
					# As the Strategy game tradition
				}

				# lower the value for each priest already generated
				modifier = {
					exists = var:nb_chessmaster_generated
					add = {
						value = var:nb_chessmaster_generated
						multiply = -5
					}
				}

				if = {
					limit = { exists = var:nb_chessmaster_generated }
					change_variable = {
						name = nb_chessmaster_generated
						add = 1
					}
				}
				else = {
					set_variable = {
						name = nb_chessmaster_generated
						value = 1
					}
				}

				# Generate the actual character
				create_character = {
					template = celebration_chessmaster_character
					location = root.capital_province
					save_scope_as = new_guest
				}
			}
		}


		#Does claimant exist? Send it my way and count down the variable
		if = {
			limit = { exists = scope:new_guest }

			add_visiting_courtier = scope:new_guest

			scope:new_guest = {
				save_scope_as = guest #For courtier_guest_management.1001
				trigger_event = courtier_guest_management.1001 #For message
			}
			change_variable = {
				name = number_prestigious_new_guests
				subtract = 1
			}
		}

		#Either end the chain or resend this event
		if = {
			limit = { var:number_prestigious_new_guests = 0 }
			remove_variable = number_prestigious_new_guests
			remove_variable = holding_quality

			if = {	limit = { exists = var:nb_commander_generated } remove_variable = nb_commander_generated }
			if = {	limit = { exists = var:nb_diplomat_generated } remove_variable = nb_diplomat_generated }
			if = {	limit = { exists = var:nb_spy_generated } remove_variable = nb_spy_generated }
			if = {	limit = { exists = var:nb_steward_generated } remove_variable = nb_steward_generated }
			if = {	limit = { exists = var:nb_hunter_generated } remove_variable = nb_hunter_generated }
			if = {	limit = { exists = var:nb_priest_generated } remove_variable = nb_priest_generated }
			if = {	limit = { exists = var:nb_scholar_generated } remove_variable = nb_scholar_generated }
			if = {	limit = { exists = var:nb_artisan_generated } remove_variable = nb_artisan_generated }
			if = {	limit = { exists = var:nb_chessmaster_generated } remove_variable = nb_chessmaster_generated }
		}
		else = {
			trigger_event = {
				id = fp2_other_decisions.0001
				days = { 10 20 }
			}
		}
	}
}

##################################################
# Council of Toledo - Organization
# by Joe Parkin and Ola Jentzsch
# 0700 Decide who to invite
##################################################

# scripted_effect fetch_council_toledo_priest_effect = { }

# scripted_effect fp2_struggle_council_toledo_attendee_effect = { }

# scripted_effect fp2_council_toledo_guest_populate_effect = { }

# fp2_other_decisions.0700 = { }

##################################################
# Council of Toledo - Arrival
# by Joe Parkin and Ola Jentzsch
# 0701 See who turned up
##################################################

# scripted_trigger fp2_council_toledo_successful_regional_trigger = { }

# scripted_trigger fp2_council_toledo_failure_regional_trigger = { }

# scripted_trigger fp2_council_toledo_flavor_bishop_trigger = { }

# fp2_other_decisions.0701 = { }

##################################################
# Council of Toledo - Debate
# by Joe Parkin and Ola Jentzsch
# 0702 Bicker with them
##################################################

# scripted_effect fp2_council_toledo_debate_bishop_effect = { }

# scripted_effect fp2_council_opinion_mozarabic_effect = { }

# scripted_effect fp2_council_opinion_other_effect = { }

# scripted_effect fp2_council_modifier_effect = { }

# scripted_effect fp2_council_strife_catalyst_effect = { }

# scripted_effect fp2_council_peace_catalyst_effect = { }

# fp2_other_decisions.0702 = { }

# Cancellation due to loss of control or war
# fp2_other_decisions.0703 = { }

# fp2_other_decisions.0704 = { }

##################################################
# Secure Iberian Foothold - Notification
# by Joe Parkin and Ola Jentzsch
# 1000 Decision taker event
##################################################

# fp2_other_decisions.1000 = { }

##################################################
# Secure Iberian Foothold - Notification
# by Joe Parkin and Ola Jentzsch
# 1001 Info event
##################################################

# fp2_other_decisions.1001 = { }

##################################################
# Found Kingdom of Toledo
# by Joe Parkin
# 1100 Decision taker event
##################################################

# fp2_other_decisions.1100 = { }

# fp2_other_decisions.1101 = { }